{
  "Justice Dealer": "Shev Akria",
  "Outcast Spy": "Garak",
  "Liquid Courage": "Damar",
  "Target That Signal": "Nyota Uhura",
  "Manipulate, Cajole, Deceive": "Weyoun",
  "Warrior Spirit": "Jadzia Dax",
  "Energy Boost": "Rukor",
  "Fluidic Strength": "Odo",
  "Cut Corners If You Need To": "Fess",
  "Dogs of War": "Chang",
  "Security Plans": "TOS Pavel Chekov",
  "Breen Served Cold": "Pon",
  "Whee! Murder!": "Badgey",
  "Energy Absorption": "Vixis",
  "Flee the Collective": "Hugh",
  "The Mind's Eye": "Geordi La Forge",
  "Open Them Up": "Koth",
  "Powered Armor": "Arix",
  "Warp Theory": "Cadet Montgomery Scott",
  "Only Fools Have No Fear": "Worf",
  "Strengthen the Unimatrix": "Seven of Eleven",
  "Psychologist": "Cadet Leonard McCoy",
  "Wolf among the ships": "Yan'agh",
  "Quick Thinking": "SNW Christopher Pike",
  "Show Them What You Can Do": "Cath",
  "Defenses are irrelevant": "Six of Eleven",
  "Systems Critical": "Rima",
  "Romulan Tact": "Ba'el",
  "Cybernetic Tactician": "Airiam",
  "Impress With Your Opulence": "Rom",
  "Tactician": "Cadet James T. Kirk",
  "Slip Through": "Jabilo M'Benga",
  "Merciless Pursue": "Kuron",
  "Hasty Extraction": "Mavery",
  "Effort Yields Its Own Rewards": "Data",
  "Defensive Tactics": "Linkasa",
  "Persistence Is Key": "Benjamin Sisko",
  "Deceptive Weakness": "Barot",
  "Reinforcements": "Javaid",
  "The Dancing Doctor": "Next Gen Crusher",
  "No Time To Waste": "Origins Stamets",
  "I'll Protect You!": "TOS Hikaru Sulu",
  "Manic Ambition": "Gul Dukat",
  "Prosper": "TOS Spock",
  "Battleship Trainer": "Frank Leslie",
  "Brute Force": "Otto",
  "The Real Action": "Brad Boimler",
  "Engine Redlining": "SNW Una Chin-Riley",
  "Unwavering Loyalty": "Martok",
  "Modulation Frequency Found": "TOS Nyota Uhura",
  "Delta Quadrant Technology": "Eurydice",
  "Civilized Persistence": "Sela",
  "Extraction Protocol": "Two of Eleven",
  "Mistakes Were Made": "Pan",
  "Varied Income Streams": "B'Etor",
  "Steel Determination": "Kira Nerys",
  "Defensive Mining": "K'Bisch",
  "Just An Old Country Doctor": "TOS Leonard McCoy",
  "No Fear": "Marlena Moreau",
  "Kinetic Boost": "Vartoq",
  "Rage of Khitomer": "Honorguard Worf",
  "Chirurgical Precision": "Vel K'Bentayr",
  "Weapons Expert": "Carol Marcus",
  "Shady Methods": "Alexander Marcus",
  "Shield Backdoor": "Strike Team SNW La'an",
  "Know Your Enemy": "Changeling Kira",
  "Problem Solver": "Lucia Gonzales",
  "Heavy Shields": "SNW Spock",
  "Bombardment": "Emperor Georgiou",
  "Steady Hand": "Julian Bashir",
  "Illogical": "Spock",
  "Strengthener": "M'Ral",
  "Objective Defense": "T'Laan",
  "Hold Your Horses!": "Tilly",
  "823 ways to die": "Harcourt Fenton Mudd",
  "Savage Tenacity": "Khan Noonien Singh",
  "Nemesis": "Deanna Troi",
  "Acid bitterness": "Mirek",
  "Engage": "Jean-Luc Picard",
  "Inspirational": "James T. Kirk",
  "I Hope This Works...": "Sam Rutherford",
  "Federation Contacts": "Krell",
  "Frequency Plating": "SNW Erica Ortegas",
  "Wife of a Dahar": "Mara",
  "Get It Together!": "Beckett Mariner",
  "Adapt & Overcome": "Nine of Eleven",
  "Critical Avoidance": "Gaila",
  "Romulan Grudge": "Yuki Sulu",
  "Excellent Medicine": "Leonard McCoy",
  "Unflinching Resolve": "Joachim",
  "Down but Never Out": "Harcourt Fenton Mudd",
  "Programmed to Evolve": "Gossa",
  "Tribble Mining Collective": "Ten of Eleven",
  "We’re Gonna Need a Bigger Helmet": "Ghalenar",
  "The Beats and Shouting!": "Jaylah",
  "Critical Strike": "Klaa",
  "Interceptor Trainer": "Mae Darwin",
  "Pack Rat": "Stonn",
  "The Beast Inside": "Ash Tyler",
  "Intimidation": "Sesha",
  "Feel the Heat": "Vemet",
  "Think or Sink": "Gary Mitchell",
  "Blood Oath": "Kang",
  "Guardian Angel": "Navi",
  "Diversify": "Arrock",
  "The Riker Lean": "Next Gen Riker",
  "Thermal Modulation": "Strike Team SNW Ortegas",
  "Born Engineer": "Montgomery Scott",
  "Ranking Fire": "Hikaru Sulu",
  "Energy Absorber": "Grace Chen",
  "Sadistic": "Captain Tilly",
  "Sharpen Defenses": "D'jaoki",
  "Hurry Home": "Domitia",
  "See the Flaws": "Nero",
  "Fix What Is Broken": "SNW Hemmer",
  "Exploit Overheat": "Severus",
  "Fine Tuning": "Keenser",
  "Creating Opportunities": "Gorkon",
  "Resist Kinetic": "Komal",
  "Military Training": "Goon",
  "Mind Games": "Liviana Charvanek",
  "You will be assimilated": "Five of Eleven",
  "Fight or Flight": "Ghrush",
  "Win Them Over": "Reginald Barclay",
  "Data Miner": "Joaquin",
  "Luck Of The Irish": "Miles O'Brien",
  "Shields Refactor": "Arkady Ivanov",
  "Klingon Pursue": "L'Nar",
  "Fighting Spirit": "Cadet Hikaru Sulu",
  "Attack Maneuvers": "Kerla",
  "Prey Instinct": "Origins Saru",
  "Hidden Stash": "T'Pring",
  "Risk-Taker": "Origins Burnham",
  "Explorer Trainer": "Hendorff",
  "Rerouting Power": "Next Gen La Forge",
  "Avoid Danger": "Saru",
  "Advanced Warp Theory": "Eleven of Eleven",
  "Sabotage": "John Harrison",
  "Let Me Help You": "Marla McGivers",
  "Kobayashi Maru": "Instructor Spock",
  "Wartime Chancellor": "Gowron",
  "Pre-emptive Maneuvers": "SNW Nyota Uhura",
  "Deceptive Warfare": "Georgiou",
  "Isogen Mining": "Elea Mäkinen",
  "The Icarus Factor": "William T. Riker",
  "Learned from the Best": "Hugh Culber",
  "Empathic": "Next Gen Troi",
  "Upper hand": "Paul Zhou",
  "Shield Remodulation": "Ahvix",
  "Sturdy Companion": "Vella",
  "She'll launch on time": "TOS Montgomery Scott",
  "Unshakeable Moral Code": "Beverly Crusher",
  "Survey Trainer": "Geoffrey Hadley",
  "Created To Win": "Ikat'ika",
  "Power Play": "Next Gen Data",
  "Crush Their Hopes": "Strike Team SNW Una",
  "Chaos Into Order": "Borg Queen",
  "Blood and Honor": "Qa'ug",
  "Gold Rush": "Helvia",
  "Code of Honor": "Tasha Yar",
  "Traveler's Scion": "Wesley Crusher",
  "Interceptor Affinity": "Woteln",
  "Resistance": "Tal",
  "Weapon Contribution": "Azetbur",
  "Mirani Technology": "Tiza",
  "Advanced Training": "Christopher Pike",
  "Know your Enemy": "Kras",
  "Fatal Charm": "Ro Mudd",
  "It's all we have to go on": "TOS James T. Kirk",
  "Yay, Friends!": "D'Vana Tendi",
  "Home Engineer": "Zahra",
  "Computer Precision": "Officer 0718",
  "Chokepoint": "Dezoc",
  "Cybernetic Enhancements": "Eight of Eleven",
  "Watch the World burn": "Kumak",
  "Snarky Genius": "Paul Stamets",
  "Resource Protection Protocols": "Three Of Eleven",
  "Take Everything They Have": "Quark",
  "Bodyguard": "One of Eleven",
  "Bolstered": "Livis",
  "Cargo Optimization Algorithms": "Four of Eleven",
  "Intuitive": "Michael Burnham",
  "Honor Guard": "Decius",
  "Enhanced Weaponry": "Kati",
  "Warp Overdrive": "SNW La'an Noonien-Singh",
  "Fear is Power": "Lursa",
  "Negotiations": "Cadet Nyota Uhura",
  "Death Over Disgrace": "Tomalak",
  "Bend the Rules": "Kathryn Janeway",
  "Maquis Strike": "Chakotay",
  "Me Against The Galaxy": "B'Elanna Torres",
  "Artifact Analysis": "Tuvok",
  "Are We Friends?": "Harry Kim"
}